88663 656661
478807 281630
42679 765007
316183 497217
521319 962222
236863 397885
126265 11521
600793 276961
832467 524557
945398 977101
604531 164776
213668 853361
813772 886311
281211 652492
653515 416253
217586 453349
187174 856967
624466 112374
701389 396235
983817 813801
646436 551470
506948 180247
700852 285672
945863 593272
660770 441379
144383 235566
515523 717845
380004 247038
576283 269492
455756 543313
184236 924288
704637 581911
763361 823602
338578 275796
776077 108397
564931 550352
180756 741479
867663 884826
961050 733075
156860 629298
557379 234772
159842 811750
196494 284537
490312 710179
156400 694091
260828 671456
911038 404828
349941 756053
363668 485262
683642 825573
726145 239951
863150 68305
637190 608807
81029 931003
125621 80556
167573 289377
940026 446563
47408 975861
435649 148739
699658 385802
78111 715418
389233 118767
17838 674964
844977 343012
853076 851946
512506 679140
761748 653986
1585 208786
180806 424267
24668 76982
836652 502565
526888 618054
854614 685307
77572 101324
911002 431264
313909 228864
70611 291520
129578 99549
147344 787256
68164 527651
347201 555922
1386 384314
543095 115157
950114 853231
74901 601273
917972 598035
446911 736150
438053 502211
806512 615205
256604 233092
452262 742122
565217 98761
323574 16571
194137 662209
952260 849655
544118 367983
500192 364300
491525 793664
266048 553979
123869 761534
282962 45923
771176 53579
12083 671882
579352 808137
108483 401341
495257 331449
82610 5589
677733 938048
36315 641387
987538 94449
983086 174328
906151 23268
951704 648786
31911 879465
163341 846155
440932 100520
339406 856050
557164 521743
658106 405713
360412 536471
278802 901010
545999 62741
398429 515374
959885 704727
671648 388903
331358 132580
202223 117302
104157 43736
263528 271356
858277 129406
403609 218923
668589 404864
247933 455734
783957 311677
781554 220134
242050 832889
771799 147480
348790 314716
695473 838118
95009 574241
366753 981742
519300 581130
331046 315873
89343 721826
214374 518505
426251 775031
413738 531039
326481 178239
622556 194873
314676 334642
476436 81338
333464 525623
195853 74592
412241 369356
157471 428967
220072 805455
382038 14632
201632 297653
828551 428238
822078 34299
727487 255370
430477 664275
684061 395001
429667 790526
63942 590798
214000 715338
417075 853624
406377 896795
226616 13679
929052 972067
399757 982186
942514 159089
361518 675619
294011 227638
683722 38578
202825 420946
697857 419643
276470 360508
932705 393936
624024 864910
882211 559904
609649 744167
476634 732828
609226 593323
321802 526574
232707 675390
988642 989270
319347 92279
766497 139211
361873 212290
245596 323842
541587 852506
494048 483324
601762 728637
236107 190786
586314 601489
628996 17468
486707 144983
119487 774555
256001 925480
161861 580019
142535 889502
