319273 123258
967483 135256
48343 685535
590868 967449
532773 876617
119699 748250
671860 578397
529326 324960
806133 109134
944730 53921
37252 883588
998131 696901
849861 914349
548687 589150
876305 520513
270338 694238
813747 912869
912196 940843
678456 997574
552230 790842
706613 332095
478508 329063
933917 859371
91 310404
528823 343058
803287 337818
372094 403755
81766 183355
604503 648547
917598 919485
94323 666291
95500 230100
90469 882810
294306 869876
565220 619415
756324 673534
772618 739609
757300 794081
975185 802605
581537 419421
45761 655019
944297 7876
414861 88093
260949 767287
994883 875931
843019 955188
193672 720070
449774 514188
677119 237285
383152 766061
300522 54036
254105 82551
400931 729843
635415 260540
262249 808720
221686 15737
755921 711327
271538 35421
923204 499365
708892 62916
602061 228189
625691 924048
197403 830932
49848 323741
354170 243613
368778 191387
550623 248522
993281 835130
320736 356508
108482 891765
182627 739592
667507 450687
833126 401698
723437 837125
237532 35117
822442 91473
457703 523607
175904 315151
437117 825494
270207 852381
750488 777096
276740 305894
740926 106462
257330 368194
598667 284456
985236 966330
837721 377192
684694 245714
353178 160135
45945 845235
251913 166295
825738 940666
408820 966176
493095 258976
722240 664319
812239 668079
777187 83228
218354 845729
407382 860327
129751 541879
772953 287012
14531 815134
569016 958062
87217 729888
781857 269304
240409 775219
736205 837607
969135 448583
622229 549945
719867 437757
141095 84139
764280 980041
947508 629754
730560 339563
138842 226310
925669 634817
680275 832094
557266 436344
868705 759926
684381 761732
911296 631859
269464 583778
352805 276873
704523 983801
107816 269809
375138 673478
158291 636120
176849 643507
799396 374533
688471 947212
727500 72267
795500 439748
702460 930775
566624 87581
762660 296396
817104 30874
624330 114248
453352 421239
234601 565698
481043 296308
30118 730761
123756 822540
652942 290957
408491 966065
485713 488101
632288 378930
262025 373717
853506 389488
109442 233822
525303 33138
472525 500496
549115 756729
735727 266270
758685 452489
717946 410363
425825 126003
170066 275830
772065 929789
771704 378095
864266 239854
495055 532553
402569 901927
548691 818650
422293 408726
123222 954873
556192 729480
539061 597381
901957 312093
904202 485672
653379 634511
375942 90818
537950 623664
12566 494580
387697 599369
393003 648450
361412 443629
157598 422270
897875 720989
316773 560385
682300 818544
167653 68022
431536 907609
438076 348968
541914 818156
202660 923242
529586 423761
789445 542109
916444 442349
602426 185908
261150 698545
162312 914658
230590 757218
430261 514953
145419 264968
36740 767034
596027 119714
315415 898599
894391 226541
909679 168871
820876 684280
291069 640487
678915 667093
563971 62612
56325 936275
268538 53847
85919 176744
592155 460900
293794 786453
329257 211599
427677 933903
974298 946747
254351 104530
867533 534967
557843 116939
114832 838652
619055 266296
923473 602979
814759 154242
157456 839032
599933 748128
936867 44897
442550 85504
422207 333010
791297 51473
282058 360808
9884 513655
192811 858112
317724 253321
342242 279359
555506 191170
484838 202819
762815 485525
642413 28381
748118 404804
464906 669739
941011 468272
812393 301311
698171 153563
501183 208662
939830 50046
904964 793756
116325 403573
357661 516349
190602 744055
52285 451026
234267 353133
761703 786652
369151 997958
500322 588437
