481147 577400 470
964441 449245 525
66442 575183 470
253018 841040 525
524793 703375 509
933037 363819 525
747264 873922 525
783596 251393 509
174865 492377 449
454301 929218 525
159760 676538 509
496081 452526 444
258024 51432 443
54550 659986 509
217752 817485 509
834790 24901 509
416967 691484 509
460004 202699 449
78934 48730 351
781566 208007 509
45252 344543 443
21955 706114 509
622359 865174 525
84492 741076 509
996578 511919 525
582067 482765 470
164721 379811 443
405195 528391 470
260499 457489 449
438007 732120 509
830440 946603 525
733012 234391 509
777126 27127 509
327202 943013 525
382497 558718 470
408604 857617 525
79917 664209 509
271643 995842 525
882346 547627 525
377803 413196 449
726224 83019 509
121333 374440 443
630174 437023 509
195430 88875 383
78852 749879 509
860585 8101 525
189595 328270 443
92568 145995 375
104884 833812 509
5967 67530 340
394109 788637 509
370656 453169 449
347525 860295 525
494775 805576 509
631433 829383 504
998398 763626 525
807050 920579 525
408874 514980 470
667103 239545 509
462582 191478 449
282027 958695 525
813391 42021 509
406844 632500 509
891344 646408 525
245640 427848 449
234909 319749 407
363114 790989 509
307614 645736 509
843370 768324 525
600377 887922 525
205520 544193 470
850403 595159 525
206534 692569 509
319315 559323 470
838313 718357 525
928991 797908 525
564576 137425 470
788140 989273 525
268669 592085 470
394594 242435 441
123927 891228 525
211899 427226 449
641711 625018 509
234354 330826 407
725652 291814 509
173146 526453 470
215148 27060 383
171842 688576 509
841272 76243 525
360680 557556 470
956992 741674 525
991434 759068 525
127137 461467 449
877644 821304 525
499107 532623 470
671866 489156 509
835885 368086 509
197894 974958 525
533468 647493 509
780935 939137 525
783028 562835 509
571423 464486 470
594333 898220 525
508293 647921 509
765001 585758 509
334493 644189 509
779612 490752 509
293864 211942 443
498651 125454 449
797301 404746 509
705164 436147 509
713262 959977 525
14948 49976 324
701475 51774 509
259897 661751 509
236153 620386 470
25710 360686 443
763857 91141 509
832661 250016 509
54303 424533 449
122295 470443 449
377002 510292 449
684051 447120 509
51029 985177 525
502399 615321 470
439079 550931 470
545326 308293 470
395144 130524 443
464226 387416 449
466196 473212 413
566231 618305 447
807357 137053 509
244898 335366 407
106834 479582 449
413285 678783 509
552636 963256 525
827767 291800 509
662162 712178 504
714217 630235 504
87014 647926 509
444292 405113 449
643118 268073 509
304492 94773 443
403262 384851 436
341333 780613 509
862194 385717 525
869084 332013 525
464924 808474 509
933303 391675 525
743940 251509 509
988570 120316 525
764046 440858 509
981401 569652 525
99345 311748 443
939733 126526 525
662377 195857 509
293979 660391 509
949862 992080 458
512636 307920 470
232134 476932 449
659810 703847 442
710739 392489 509
824230 412464 509
809712 52530 509
850085 871894 419
491653 360838 449
637719 978452 525
38178 404172 443
312224 865263 525
918939 450024 525
818888 610053 509
404969 560060 470
638864 531250 509
762061 717965 424
129358 602361 470
745584 157839 509
850544 790206 525
56554 398106 443
462458 284858 449
666364 252786 509
873079 705596 525
576730 986751 525
364884 915519 525
489508 777762 509
80346 245650 443
397983 845388 525
363191 81525 443
209606 605787 470
928191 256666 525
696474 314228 509
372719 983307 525
696472 346736 509
664331 256411 509
985092 782747 525
274554 764170 509
125000 60815 354
426290 191612 449
514104 174659 470
51330 280872 443
222691 418650 449
230308 841893 525
849011 936496 476
577368 863650 525
984236 961095 458
505807 76922 449
877105 573195 525
573083 186803 470
964577 33371 525
730964 586490 509
93178 514389 470
317593 230202 443
145842 991584 525
680651 726752 504
860770 29983 525
858716 457936 525
87842 362536 443
537714 666125 509
34063 563117 470
195714 483490 449
495822 491791 426
695015 211001 509
311475 490139 449
277219 103744 443
179635 65056 383
830879 805387 450
884942 309542 525
809790 646762 504
513446 924775 525
650816 376811 509
506598 718708 509
871590 226836 525
299227 661069 509
324068 658943 509
767796 723914 424
779823 467754 509
155057 427584 449
860293 834723 525
396235 928012 525
77219 240212 443
226028 871962 525
245649 282200 407
850731 216040 525
468519 998481 525
815661 939752 525
386195 765548 509
752322 297552 509
539132 279289 470
348402 443645 449
70330 919421 525
86825 174966 383
76792 76205 307
311224 349790 441
130916 16069 354
60054 17393 340
744183 189572 509
867377 58942 525
905357 98958 525
159034 903017 525
891941 290125 525
230283 115017 386
608050 594835 403
998504 439181 525
445971 133753 449
201645 171978 365
40947 521519 470
190880 282049 443
354368 191746 443
513338 405670 470
897792 523573 525
757532 787434 468
714161 193588 509
335726 633521 509
641556 902749 525
34094 672344 509
513995 106844 470
897460 445912 525
