1 1
1 999999
50 500
617448 2553
499 501
572971 20179
501581 2356
94526 24251
58070 83855
276016 80061
46326 45925
845057 6074
637437 99230
7512 250926
301292 5900
576216 76540
952156 6798
102392 6252
860535 276376
317347 440479
905213 17886
972 565
7448 2537
5971 2094
581 2356
94526 219
5870 838553
16 80612
49955 24
84507 60749
6737 99230
7452 2526
16 65400
952156 69869
10392 65287
498446 37255
8635 276376
317347 44047
90521 17886
9737 555
61748 237
5971 79
5081 25650
9456 2419
98 8353
6016 8012
6396 4595
85057 67491
63737 9923
79512 226
192 5018
576216 7400
92156 6799
1392 62554
86035 2763
317347 44047
17 44
213 178
97 555
748 2
571 7
81 2565
946 24
988 353
66 801
636 45
57 674
637 992
792 22
192 18
216 70
96 67
132 624
865 2766
3347 4479
8 853
606 8
636 455
857 61
67 992
712 226
19 501
5716 7
56 699
392 6554
8035 2763
17347 4404
174 442
2134 1785
972 5554
7484 2124
481 2525
9546 244
44988 35553
566 8041
5636 45
5721 67445
64137 99245
7922 22544
1192 1855
116 705
9226 67
44132 5624
84465 42766
355347 44127
843 853
6206 8
34636 455
4457 61
637 992
71342 2246
139 50134
5716 7521
563 6499
392 65542
8035 276376
1744 4422
2134 1785
972 555423
17484 212432
154114 7124
11481 25253
229546 24423
33498 35553
56446 804133
563336 4524
5721 67445
64137 992
79223 22544
119234 1855
1136 7053
92264 6732
44132 562432
846532 4276
355347 44127
43 8
620 83
466 455
57 61
37 992
1342 246
19 501
516 752
56 649
392 6554
35 2763
1747 44347
14 44
2134 17
2 555
184 2124
15114 712
11481 2
2954 2442
3349 355
646 80413
56336 45
571 6744
617 992
92 225
11934 18
136 70534
224 673
4132 562
32 427
35723 44
4323 842
3420 2343
324466 44345
337 9932
1342 246
19 501
516 752
56 649
392 554
35 2763
1747 44347
14 44
2134 17
2 555
184 2124
15114 712
11481 2
2954 2442
3349 355
646 80413
56336 45
571 6744
617 992
92 225
11934 18
136 70534
224 673
4132 562
32 427
35723 44
2 2
3 4
5 6
7 8
